…
If data in several columns need to be checked, they should be appended
into one vector.

``` r
dup_find_all(
  vec = c(
    kp2014$`Theridion murarium Aggressiveness...4`,
    kp2014$`Theridion murarium Aggressiveness...5`,
    kp2014$`Theridion murarium Aggressiveness...6`
  ),
  type = "offset"
)
#> # A tibble: 32 × 7
#>    length  pos1  vec1  pos2  vec2 delta duplicate_no
#>     <dbl> <int> <dbl> <int> <dbl> <dbl>        <int>
#>  1      9    67 166.     78 162.  -4.35            1
#>  2      9    68  47.7    79  43.3 -4.35            1
#>  3      9    69 125.     80 120.  -4.35            1
#>  4      9    70  91.0    81  86.6 -4.35            1
#>  5      9    71 134.     82 130.  -4.35            1
#>  6      9    72 158.     83 153.  -4.35            1
#>  7      9    73  46.4    84  42.0 -4.35            1
#>  8      9    74 186.     85 182.  -4.35            1
#>  9      9    75 148.     86 143.  -4.35            1
#> 10      9    69 125.    127 123.  -2.03            2
#> # ℹ 22 more rows
```
…
